{
  "appenders": {

    "access": {
      "type": "dateFile",
      "filename": "../logs/access.log",
      "pattern": "-yyyy-MM-dd",
      "layout": {
        "type": "pattern",
        "pattern": "%d [%z] %p [%c] - %m"
      }
    },

    "appFile": {
      "type": "dateFile",
      "filename": "../logs/optimoc.log",
      "pattern": "-yyyy-MM-dd-hh",
      "compress": false,
      "encoding": "utf-8",
      "layout": {
        "type": "pattern",
        "pattern": "%d [%z] %p [%c] {%X{methodName}} (%X{userName} - %X{userAPIKey}) - %m"
      }
    },

    "app": {
      "type": "categoryFilter",
      "exclude": [ "http" ],
      "appender": "appFile"
    },

    "errorFile": {
      "type": "file",
      "filename": "../logs/errors.log"
    },

    "errors": {
      "type": "logLevelFilter",
      "level": "error",
      "appender": "errorFile"
    },

    "colouredConsole": {
      "type": "console",
      "layout": {
        "type": "pattern",
        "pattern": "%[%d [%z] %p [%c] {%X{methodName}} (%X{userName} - %X{userAPIKey})%] - %m"
      }
    },

    "console": {
      "type": "categoryFilter",
      "exclude": [ "http" ],
      "appender": "colouredConsole"
    },

    "mongodbAppender": {
      "type": "mongodb",
      "connectionString": "mongodb://optimocDBAdmin:dababe60c8db61ae52fb8c6a4a21b434@ds141960.mlab.com:41960/optimoc",
      "collectionName": "audit",
      "db": "optimoc"
    },

    "mongodb": {
      "type": "logLevelFilter",
      "level": "info",
      "appender": "mongodbAppender"
    }

  },
  "categories": {
    "default": {
      "appenders": [ "app", "errors", "console", "mongodb" ],
      "level": "trace"
    },
    "http": {
      "appenders": [ "access" ],
      "level": "info"
    }
  }
}
